1	209	191,40	79,60
2	209	117,60	69,50
3	198	98,80	71,10
4	209	90,80	62,40
5	210	88,80	63,80
6	184	75,80	53,80
7	197	68,80	56,30
8	189	73,00	43,30
9	192	70,40	44,70
10	158	65,60	44,10
11	144	53,80	35,20
12	151	43,60	36,30
13	150	43,40	32,80
14	164	45,60	29,60
15	163	45,20	31,20
16	144	53,00	26,20
17	95	44,40	27,60
18	149	42,00	28,60
19	150	43,60	27,00
20	157	39,80	22,60
21	149	34,00	21,50
22	149	33,00	19,70
23	148	31,60	19,40
24	137	31,00	17,90
25	127	31,80	17,60
26	122	29,80	15,30
27	137	22,60	15,50
28	140	25,60	19,40
29	93	23,40	15,60
30	130	24,80	15,30
31	140	21,80	14,50
32	98	22,60	18,60
33	107	19,40	15,60
34	133	18,20	15,80
35	125	18,00	16,40
36	129	15,80	19,90
37	125	16,80	17,50
38	116	26,00	17,80
39	121	25,20	19,60
40	122	26,60	18,20
41	121	25,00	17,60
42	133	27,60	19,00
43	122	30,80	18,40
44	126	30,20	18,00
45	121	20,20	17,10
46	126	16,20	19,00
47	118	24,20	20,90
48	84	15,60	17,30
49	59	14,80	14,00
50	56	14,20	13,80
51	60	15,00	16,40
52	47	14,60	14,50
53	44	15,60	18,10
54	50	23,20	13,40
55	49	15,00	16,10
56	99	12,80	16,30
57	75	13,80	19,00
58	39	12,40	20,40
59	50	13,20	15,60
60	39	13,00	24,20
61	38	12,40	22,30
62	41	12,00	23,60
63	38	18,40	20,60
64	39	23,00	23,00
65	52	19,00	19,50
66	41	13,80	19,80
67	39	13,40	17,20
68	51	21,60	14,80
69	81	27,60	14,20
70	70	16,00	20,70
71	82	13,80	20,30
72	80	18,60	19,80
73	98	14,60	21,60
74	82	13,80	21,80
75	85	15,60	21,90
76	86	23,40	20,60
77	81	22,40	23,10
78	80	16,20	24,00
79	86	14,20	24,20
80	83	14,40	24,10
81	84	13,20	23,10
82	85	14,40	17,90
83	85	13,60	21,10
84	83	13,20	18,00
85	53	14,40	17,40
86	69	16,80	18,20
87	37	14,80	21,60
88	58	14,00	22,20
89	83	23,40	25,30
90	38	26,20	23,10
91	58	27,20	23,20
92	75	30,80	27,10
93	65	28,60	25,70
94	84	25,00	26,70
95	35	20,60	25,60
96	35	23,00	23,00
97	35	17,60	23,70
98	32	19,00	24,20
99	39	27,00	22,20
100	37	28,20	21,60
